英国食品安全干预措施成功率分析
…
数据修正：总共有 52 个地方当局不存在 A
级影响力的餐饮单位。因此这些地方“对 A
级影响力餐饮单位进行成功干预的百分比”应为
“NR”，即没有应采取或报告的干预措施，而不是 部分数据中所呈现的
100。此外，为了数据处理的需要，我们将所有 “NR” 值改为空值。

# 删除 6 份未提交的报告数据
food_data <- filter(food_data,is.na(`Totalestablishments(includingnotyetrated&outside)`)==FALSE)

# 对于被评为 A 级的企业，应采取的干预措施应为 0 
# 因此，“已采取干预措施的百分比”项应注明为 "NR"，即没有应采取或报告的干预措施
filter(food_data[,c(3,9,10,20)],Aratedestablishments==0)

## # A tibble: 52 × 4
##    LAName                Aratedestablishments Total%ofBroadlyCompliantestab…¹ Total%ofIntervention…²
##    <chr>                                <dbl> <chr>                           <chr>                 
##  1 Basingstoke and Deane                    0 NP                              100                   
##  2 Bolsover                                 0 NP                              100                   
##  3 Bromsgrove                               0 NP                              100                   
##  4 Carlisle City                            0 NP                              100                   
##  5 Chelmsford                               0 NP                              100                   
##  6 Cheltenham                               0 NP                              100                   
##  7 Corby                                    0 NP                              100                   
##  8 East Dorset (1)                          0 NP                              100                   
##  9 East Northamptonshire                    0 NP                              NR                    
## 10 East Staffordshire                       0 NP                              NR                    
## # ℹ 42 more rows
## # ℹ abbreviated names: ¹​`Total%ofBroadlyCompliantestablishments-A`,
## #   ²​`Total%ofInterventionsachieved-premisesratedA`
…
